[Tutorial] SCN2A mutations in neurodevelopmental disorders
…
# Which variants are occurred in multiple times?
library(dplyr)
fd <- d %>%
  group_by(p.Protein) %>%
  count() %>%
  filter(n>1)
nrow(fd)

[1] 40

# Which columns you would use for more grouping?
d %>% group_by(Alt) %>% count()

# A tibble: 25 x 2
# Groups:   Alt [25]
   Alt                   n
   <chr>             <int>
 1 .                     1
 2 ??                    1
 3 12Mb Duplication      1
 4 2.6Mb Duplication     1
 5 2.8Mb Deletion        1
 6 230kb Deletion        1
 7 26kb Duplication      1
 8 507kb Duplication     1
 9 671kb Duplication     1
10 94kb Deletion         1
# ... with 15 more rows
…
3.4. Find the position where different consequences of mutations occur

If you checked the recurrent mutations, you might want to find a locus where two or more variants occur. Such loci might indicate functionally important position of the gene and you might find some insight as to a cause of disease.

d %>%
  group_by(numDNA, Effect) %>%
  count() %>%
  filter(n>1)

# A tibble: 47 x 3
# Groups:   numDNA, Effect [47]
   numDNA Effect             n
   <chr>  <chr>          <int>
 1 ""     DeletionCNV        3
 2 ""     DuplicationCNV     5
 3 ""     Frameshift         2
 4 "106"  Missense           3
 5 "1136" Missense           2
 6 "1267" Missense           2
 7 "1289" Missense           2
 8 "2558" Missense           9
 9 "2567" Missense           2
10 "2645" Missense           2
# ... with 37 more rows
…
