Chapter 9
…
Hans Rosling was the co-founder of the Gapminder Foundation, an organization dedicated to educating the public by using data to dispel common myths about the so-called developing world. The organization uses data to show how actual trends in health and economics contradict the narratives that emanate from sensationalist media coverage of catastrophes, tragedies and other unfortunate events. As stated in the Gapminder Foundations website:

Journalists and lobbyists tell dramatic stories. Thats their job. They tell stories about extraordinary events and unusual people. The piles of dramatic stories pile up in peoples minds into an over-dramatic worldview and strong negative stress feelings: The world is getting worse! Its we vs.them! Other people are strange! The population just keeps growing! and Nobody cares!

Hans Rosling conveyed actual data-based trends in a dramatic way of his own, using effective data visualization. This section is based on two talks that exemplify this approach to education: [New Insights on Poverty] and The Best Stats Youve Ever Seen. Specifically, in this section, we use data to attempt to answer the following two questions:

Is it a fair characterization of todays world to say it is divided into western rich nations and the developing world in Africa, Asia, and Latin America?

Has income inequality across countries worsened during the last 40 years?

To answer these questions, we will be using the gapminder dataset provided in dslabs. This dataset was created using a number of spreadsheets available from the Gapminder Foundation. You can access the table like this:

gapminder %>% as_tibble()

# A tibble: 10,545 x 9
   country    year infant_mortality life_expectancy fertility population
   <fct>     <int>            <dbl>           <dbl>     <dbl>      <dbl>
 1 Albania    1960            115.             62.9      6.19    1636054
 2 Algeria    1960            148.             47.5      7.65   11124892
 3 Angola     1960            208              36.0      7.32    5270844
 4 Antigua ~  1960             NA              63.0      4.43      54681
 5 Argentina  1960             59.9            65.4      3.11   20619075
 6 Armenia    1960             NA              66.9      4.55    1867396
 7 Aruba      1960             NA              65.7      4.82      54208
 8 Australia  1960             20.3            70.9      3.45   10292328
 9 Austria    1960             37.3            68.8      2.7     7065525
10 Azerbaij~  1960             NA              61.3      5.57    3897889
# ... with 10,535 more rows, and 3 more variables: gdp <dbl>,
#   continent <fct>, region <fct>
…
